<?xml version="1.0" encoding="utf-8"?>
<!-- Generator: Adobe Illustrator 16.0.0, SVG Export Plug-In . SVG Version: 6.00 Build 0)  -->
<!DOCTYPE svg PUBLIC "-//W3C//DTD SVG 1.1//EN" "http://www.w3.org/Graphics/SVG/1.1/DTD/svg11.dtd">
<svg version="1.1" id="Capa_1" xmlns="http://www.w3.org/2000/svg" xmlns:xlink="http://www.w3.org/1999/xlink" x="0px" y="0px"
	 width="1000px" height="1000px" viewBox="0 0 1000 1000" enable-background="new 0 0 1000 1000" xml:space="preserve">
<path fill="#B71C1C" d="M703.148,448.892c0,60.894-51.788,110.258-115.671,110.258c-63.882,0-115.668-49.364-115.668-110.258
	c0-3.551-36.626-110.262,115.668-110.262C651.36,338.63,703.148,387.996,703.148,448.892z"/>
<path fill="#B71C1C" d="M559.008,727.972c-66.894,2.229-122.788-47.166-124.843-110.329c-2.054-63.16,50.51-116.173,117.403-118.403
	c154.872-5.163,130.16,8.437,133.555,112.762C686.743,661.804,644.182,725.131,559.008,727.972z"/>
<path fill="#B71C1C" d="M718.17,515.427c0,134.55-75.044,187.307-80.817,187.307c-11.267,0,30.118-125.78,30.118-187.307
	c0-61.524-19.683-141.434-8.056-141.434C675.563,373.993,718.17,445.55,718.17,515.427z"/>
<g>
	<path fill="#B71C1C" d="M516.874,448.511c0,60.895-51.787,110.261-115.67,110.261c-63.882,0-115.668-49.366-115.668-110.261
		s51.786-110.26,115.668-110.26C524.348,338.25,516.874,416.165,516.874,448.511z"/>
	<path fill="#B71C1C" d="M528.893,598.432c0,67.759-50.603,122.69-113.026,122.69s-113.028-54.932-113.028-122.69
		c0-194.502-76.673-122.689,113.028-122.689C478.29,475.742,528.893,530.672,528.893,598.432z"/>
	<path fill="#B71C1C" d="M330.976,515.113c0,63.799,16.103,191.132,30.902,191.132c74.545,0-84.499,20.171-84.499-191.132
		c0-63.801,11.999-115.52,26.798-115.52S330.976,451.313,330.976,515.113z"/>
</g>
<path fill="#3C3F41" d="M553.871,280.195c-1.735-3.505-18.029,1.204-36.393,10.521c-18.364,9.315-31.845,19.708-30.11,23.212
	c1.735,3.505,18.026-1.206,36.391-10.521C542.124,294.092,555.605,283.7,553.871,280.195z"/>
<path fill="none" stroke="#828692" stroke-width="5" stroke-miterlimit="10" d="M867.51,805.429
	c-80.599,110.507-315.472,74.283-524.608-80.906c-209.134-155.196-313.333-370.592-232.737-481.1
	c87.142-119.484,335.244-59.612,524.609,80.909C844.569,480.015,954.051,686.767,867.51,805.429z"/>
<path fill="none" stroke="#828692" stroke-width="5" stroke-miterlimit="10" d="M967.348,418.777
	C990.463,554.139,802.2,700.859,546.849,746.491C291.497,792.119,65.753,719.379,42.635,584.018
	C17.641,437.665,231.923,297.622,463.134,256.304C719.295,210.529,942.521,273.433,967.348,418.777z"/>
<path fill="#2E7D32" d="M520.961,293.34c3.708,16.374,44.736,20.815,91.639,9.921c93.872-21.805,76.428-57.201,78.202-49.373
	c3.711,16.373-44.738-20.814-91.64-9.92S517.249,276.967,520.961,293.34z"/>
<path fill="#388E3C" d="M685.167,268.873c-0.627-4.753,8.312,2.993-99.62,17.556c-35.478,4.787-65.6-0.777-64.586,6.911
	c1.011,7.69,31.16,17.21,66.638,12.424C623.075,300.977,686.18,276.562,685.167,268.873z"/>
<path fill="#3C3F41" d="M491.754,279.104c-7.899,46.046-2.283,82.654,1.807,83.373c4.086,0.718,4.412-37.327,12.311-83.373
	c7.382-43.022,51.512-77.183,16.292-83.373C518.077,195.012,499.653,233.058,491.754,279.104z"/>
<path fill="none" stroke="#828692" stroke-width="5" stroke-miterlimit="10" d="M574.077,31.247
	C708.28,51.51,786.795,278.526,749.449,538.303c-37.352,259.778-176.421,453.942-310.624,433.683
	c-145.101-21.909-209.187-271.839-175.368-507.058C300.924,204.328,429.978,9.493,574.077,31.247z"/>
<ellipse fill="#BF360C" cx="467.727" cy="55.375" rx="31.595" ry="31.937"/>
<ellipse fill="#BF360C" cx="928.529" cy="338.25" rx="31.596" ry="31.938"/>
<ellipse fill="#BF360C" cx="591.659" cy="908.563" rx="31.596" ry="31.938"/>
<ellipse fill="#BF360C" cx="50.864" cy="606.298" rx="31.595" ry="31.938"/>
<ellipse fill="#01579B" cx="113.957" cy="242.438" rx="31.596" ry="31.937"/>
<ellipse fill="#01579B" cx="890.222" cy="753.439" rx="31.596" ry="31.938"/>
<ellipse fill="#C62828" cx="386.232" cy="523.031" rx="88.68" ry="152.846"/>
</svg>
